…
trash_wheel = 
  read_excel("./Data/202309 Trash Wheel Collection Data.xlsx", sheet = "Mr. Trash Wheel", range = "A2:M586", 
             col_names = TRUE) |> 
  janitor::clean_names() |> 
  mutate(
    new_homes_powered = (weight_tons*500)/30, # 1 ton of trash =  avg 500 kilowatts, 1 avg household = 30             
                                              # kilowatts/day
    wheel = 1
  )

trash_wheel
```

    ## # A tibble: 584 x 15
    ##    dumpster month year  date                weight_tons volume_cubic_yards
    ##       <dbl> <chr> <chr> <dttm>                    <dbl>              <dbl>
    ##  1        1 May   2014  2014-05-16 00:00:00        4.31                 18
    ##  2        2 May   2014  2014-05-16 00:00:00        2.74                 13
    ##  3        3 May   2014  2014-05-16 00:00:00        3.45                 15
    ##  4        4 May   2014  2014-05-17 00:00:00        3.1                  15
    ##  5        5 May   2014  2014-05-17 00:00:00        4.06                 18
    ##  6        6 May   2014  2014-05-20 00:00:00        2.71                 13
    ##  7        7 May   2014  2014-05-21 00:00:00        1.91                  8
    ##  8        8 May   2014  2014-05-28 00:00:00        3.7                  16
    ##  9        9 June  2014  2014-06-05 00:00:00        2.52                 14
    ## 10       10 June  2014  2014-06-11 00:00:00        3.76                 18
    ## # i 574 more rows
    ## # i 9 more variables: plastic_bottles <dbl>, polystyrene <dbl>,
    ## #   cigarette_butts <dbl>, glass_bottles <dbl>, plastic_bags <dbl>,
    ## #   wrappers <dbl>, sports_balls <dbl>, new_homes_powered <dbl>, wheel <dbl>
…
prof_trash_wheel = 
  read_excel("./Data/202309 Trash Wheel Collection Data.xlsx", sheet = "Professor Trash Wheel", range = "A2:L108", 
             col_names = TRUE) |> 
  janitor::clean_names() |> 
  mutate(
    new_homes_powered = (weight_tons*500)/30,
    wheel = 2,
    sports_balls = "NA"
  )

prof_trash_wheel
```

    ## # A tibble: 106 x 15
    ##    dumpster month     year date                weight_tons volume_cubic_yards
    ##       <dbl> <chr>    <dbl> <dttm>                    <dbl>              <dbl>
    ##  1        1 January   2017 2017-01-02 00:00:00        1.79                 15
    ##  2        2 January   2017 2017-01-30 00:00:00        1.58                 15
    ##  3        3 February  2017 2017-02-26 00:00:00        2.32                 18
    ##  4        4 February  2017 2017-02-26 00:00:00        3.72                 15
    ##  5        5 February  2017 2017-02-28 00:00:00        1.45                 15
    ##  6        6 March     2017 2017-03-30 00:00:00        1.71                 15
    ##  7        7 April     2017 2017-04-01 00:00:00        1.82                 15
    ##  8        8 April     2017 2017-04-20 00:00:00        2.37                 15
    ##  9        9 May       2017 2017-05-10 00:00:00        2.64                 15
    ## 10       10 May       2017 2017-05-26 00:00:00        2.78                 15
    ## # i 96 more rows
    ## # i 9 more variables: plastic_bottles <dbl>, polystyrene <dbl>,
    ## #   cigarette_butts <dbl>, glass_bottles <dbl>, plastic_bags <dbl>,
    ## #   wrappers <dbl>, new_homes_powered <dbl>, wheel <dbl>, sports_balls <chr>
…
gwynnda_wheel = 
  read_excel("./Data/202309 Trash Wheel Collection Data.xlsx", sheet = "Gwynnda Trash Wheel", range = "A2:K157", 
             col_names = TRUE) |> 
  janitor::clean_names() |> 
  mutate(
    new_homes_powered = (weight_tons*500)/30,
    wheel = 3,
    sports_balls = "NA",
    glass_bottles = "NA"
  )

gwynnda_wheel
```

    ## # A tibble: 155 x 15
    ##    dumpster month   year date                weight_tons volume_cubic_yards
    ##       <dbl> <chr>  <dbl> <dttm>                    <dbl>              <dbl>
    ##  1        1 July    2021 2021-07-03 00:00:00        0.93                 15
    ##  2        2 July    2021 2021-07-07 00:00:00        2.26                 15
    ##  3        3 July    2021 2021-07-07 00:00:00        1.62                 15
    ##  4        4 July    2021 2021-07-16 00:00:00        1.76                 15
    ##  5        5 July    2021 2021-07-30 00:00:00        1.53                 15
    ##  6        6 August  2021 2021-08-11 00:00:00        2.06                 15
    ##  7        7 August  2021 2021-08-14 00:00:00        1.9                  15
    ##  8        8 August  2021 2021-08-16 00:00:00        2.16                 15
    ##  9        9 August  2021 2021-08-16 00:00:00        2.6                  15
    ## 10       10 August  2021 2021-08-17 00:00:00        3.21                 15
    ## # i 145 more rows
    ## # i 9 more variables: plastic_bottles <dbl>, polystyrene <dbl>,
    ## #   cigarette_butts <dbl>, plastic_bags <dbl>, wrappers <dbl>,
    ## #   new_homes_powered <dbl>, wheel <dbl>, sports_balls <chr>,
    ## #   glass_bottles <chr>
…
